qemu-system-x86_64         -drive file=sles-img-650m.raw,index=1,media=disk,format=raw     -net nic,model=virtio,macaddr=52:54:00:05:11:11   

qemu-system-x86_64   -boot d  -cdrom Downloads/debian-31r0a-i386-netinst.iso                 -drive file=sles-img-650m.raw,index=2,media=disk,format=raw     -net nic,model=virtio,macaddr=52:54:00:05:11:11


root root

netbsd netbsd 



debian-31r8-i386-binary-1-CD




